-------------------------------------------------------------------------------
Test set: no.ntnu.eirinsvi.mappe.del1.hospital.SurgeonTest
-------------------------------------------------------------------------------
Tests run: 1, Failures: 0, Errors: 0, Skipped: 0, Time elapsed: 0 s - in no.ntnu.eirinsvi.mappe.del1.hospital.SurgeonTest
